Part1/c499_obf.vcd
$date
	Tue Dec 16 23:24:53 2025
$end
$version
	Icarus Verilog
$end
$timescale
	1ps
$end
$scope module tb_c499_obf $end
$var wire 32 ! out_bus [31:0] $end
$var wire 1 " N755 $end
$var wire 1 # N754 $end
$var wire 1 $ N753 $end
$var wire 1 % N752 $end
$var wire 1 & N751 $end
$var wire 1 ' N750 $end
$var wire 1 ( N749 $end
$var wire 1 ) N748 $end
$var wire 1 * N747 $end
$var wire 1 + N746 $end
$var wire 1 , N745 $end
$var wire 1 - N744 $end
$var wire 1 . N743 $end
$var wire 1 / N742 $end
$var wire 1 0 N741 $end
$var wire 1 1 N740 $end
$var wire 1 2 N739 $end
$var wire 1 3 N738 $end
$var wire 1 4 N737 $end
$var wire 1 5 N736 $end
$var wire 1 6 N735 $end
$var wire 1 7 N734 $end
$var wire 1 8 N733 $end
$var wire 1 9 N732 $end
$var wire 1 : N731 $end
$var wire 1 ; N730 $end
$var wire 1 < N729 $end
$var wire 1 = N728 $end
$var wire 1 > N727 $end
$var wire 1 ? N726 $end
$var wire 1 @ N725 $end
$var wire 1 A N724 $end
$var reg 1 B N1 $end
$var reg 1 C N101 $end
$var reg 1 D N105 $end
$var reg 1 E N109 $end
$var reg 1 F N113 $end
$var reg 1 G N117 $end
$var reg 1 H N121 $end
$var reg 1 I N125 $end
$var reg 1 J N129 $end
$var reg 1 K N13 $end
$var reg 1 L N130 $end
$var reg 1 M N131 $end
$var reg 1 N N132 $end
$var reg 1 O N133 $end
$var reg 1 P N134 $end
$var reg 1 Q N135 $end
$var reg 1 R N136 $end
$var reg 1 S N137 $end
$var reg 1 T N17 $end
$var reg 1 U N21 $end
$var reg 1 V N25 $end
$var reg 1 W N29 $end
$var reg 1 X N33 $end
$var reg 1 Y N37 $end
$var reg 1 Z N41 $end
$var reg 1 [ N45 $end
$var reg 1 \ N49 $end
$var reg 1 ] N5 $end
$var reg 1 ^ N53 $end
$var reg 1 _ N57 $end
$var reg 1 ` N61 $end
$var reg 1 a N65 $end
$var reg 1 b N69 $end
$var reg 1 c N73 $end
$var reg 1 d N77 $end
$var reg 1 e N81 $end
$var reg 1 f N85 $end
$var reg 1 g N89 $end
$var reg 1 h N9 $end
$var reg 1 i N93 $end
$var reg 1 j N97 $end
$var reg 1 k keyinput0 $end
$var reg 1 l keyinput1 $end
$var reg 1 m keyinput10 $end
$var reg 1 n keyinput11 $end
$var reg 1 o keyinput12 $end
$var reg 1 p keyinput13 $end
$var reg 1 q keyinput14 $end
$var reg 1 r keyinput15 $end
$var reg 1 s keyinput2 $end
$var reg 1 t keyinput3 $end
$var reg 1 u keyinput4 $end
$var reg 1 v keyinput5 $end
$var reg 1 w keyinput6 $end
$var reg 1 x keyinput7 $end
$var reg 1 y keyinput8 $end
$var reg 1 z keyinput9 $end
$var reg 32 { out_right [31:0] $end
$var reg 32 | out_wrong [31:0] $end
$var reg 16 } right_key [15:0] $end
$var reg 16 ~ wrong_key [15:0] $end
$var integer 32 !" i [31:0] $end
$var integer 32 "" j [31:0] $end
$scope module dut $end
$var wire 1 B N1 $end
$var wire 1 C N101 $end
$var wire 1 D N105 $end
$var wire 1 E N109 $end
$var wire 1 F N113 $end
$var wire 1 G N117 $end
$var wire 1 H N121 $end
$var wire 1 I N125 $end
$var wire 1 J N129 $end
$var wire 1 K N13 $end
$var wire 1 L N130 $end
$var wire 1 M N131 $end
$var wire 1 N N132 $end
$var wire 1 O N133 $end
$var wire 1 P N134 $end
$var wire 1 Q N135 $end
$var wire 1 R N136 $end
$var wire 1 S N137 $end
$var wire 1 T N17 $end
$var wire 1 U N21 $end
$var wire 1 V N25 $end
$var wire 1 W N29 $end
$var wire 1 X N33 $end
$var wire 1 Y N37 $end
$var wire 1 Z N41 $end
$var wire 1 [ N45 $end
$var wire 1 \ N49 $end
$var wire 1 ] N5 $end
$var wire 1 ^ N53 $end
$var wire 1 _ N57 $end
$var wire 1 ` N61 $end
$var wire 1 a N65 $end
$var wire 1 b N69 $end
$var wire 1 A N724 $end
$var wire 1 @ N725 $end
$var wire 1 ? N726 $end
$var wire 1 > N727 $end
$var wire 1 = N728 $end
$var wire 1 < N729 $end
$var wire 1 c N73 $end
$var wire 1 ; N730 $end
$var wire 1 : N731 $end
$var wire 1 9 N732 $end
$var wire 1 8 N733 $end
$var wire 1 7 N734 $end
$var wire 1 6 N735 $end
$var wire 1 5 N736 $end
$var wire 1 4 N737 $end
$var wire 1 3 N738 $end
$var wire 1 2 N739 $end
$var wire 1 1 N740 $end
$var wire 1 0 N741 $end
$var wire 1 / N742 $end
$var wire 1 . N743 $end
$var wire 1 - N744 $end
$var wire 1 , N745 $end
$var wire 1 + N746 $end
$var wire 1 * N747 $end
$var wire 1 ) N748 $end
$var wire 1 ( N749 $end
$var wire 1 ' N750 $end
$var wire 1 & N751 $end
$var wire 1 % N752 $end
$var wire 1 $ N753 $end
$var wire 1 # N754 $end
$var wire 1 " N755 $end
$var wire 1 d N77 $end
$var wire 1 e N81 $end
$var wire 1 f N85 $end
$var wire 1 g N89 $end
$var wire 1 h N9 $end
$var wire 1 i N93 $end
$var wire 1 j N97 $end
$var wire 1 k keyinput0 $end
$var wire 1 l keyinput1 $end
$var wire 1 m keyinput10 $end
$var wire 1 n keyinput11 $end
$var wire 1 o keyinput12 $end
$var wire 1 p keyinput13 $end
$var wire 1 q keyinput14 $end
$var wire 1 r keyinput15 $end
$var wire 1 s keyinput2 $end
$var wire 1 t keyinput3 $end
$var wire 1 u keyinput4 $end
$var wire 1 v keyinput5 $end
$var wire 1 w keyinput6 $end
$var wire 1 x keyinput7 $end
$var wire 1 y keyinput8 $end
$var wire 1 z keyinput9 $end
$var wire 1 #" N755_plain $end
$var wire 1 $" N754_plain $end
$var wire 1 %" N753_plain $end
$var wire 1 &" N752_plain $end
$var wire 1 '" N751_plain $end
$var wire 1 (" N750_plain $end
$var wire 1 )" N749_plain $end
$var wire 1 *" N748_plain $end
$var wire 1 +" N747_plain $end
$var wire 1 ," N746_plain $end
$var wire 1 -" N745_plain $end
$var wire 1 ." N744_plain $end
$var wire 1 /" N743_plain $end
$var wire 1 0" N742_plain $end
$var wire 1 1" N741_plain $end
$var wire 1 2" N740_plain $end
$var wire 1 3" N739_plain $end
$var wire 1 4" N738_plain $end
$var wire 1 5" N737_plain $end
$var wire 1 6" N736_plain $end
$var wire 1 7" N735_plain $end
$var wire 1 8" N734_plain $end
$var wire 1 9" N733_plain $end
$var wire 1 :" N732_plain $end
$var wire 1 ;" N731_plain $end
$var wire 1 <" N730_plain $end
$var wire 1 =" N729_plain $end
$var wire 1 >" N728_plain $end
$var wire 1 ?" N727_plain $end
$var wire 1 @" N726_plain $end
$var wire 1 A" N725_plain $end
$var wire 1 B" N724_plain $end
$scope module core_inst $end
$var wire 1 B N1 $end
$var wire 1 C N101 $end
$var wire 1 D N105 $end
$var wire 1 E N109 $end
$var wire 1 F N113 $end
$var wire 1 G N117 $end
$var wire 1 H N121 $end
$var wire 1 I N125 $end
$var wire 1 J N129 $end
$var wire 1 K N13 $end
$var wire 1 L N130 $end
$var wire 1 M N131 $end
$var wire 1 N N132 $end
$var wire 1 O N133 $end
$var wire 1 P N134 $end
$var wire 1 Q N135 $end
$var wire 1 R N136 $end
$var wire 1 S N137 $end
$var wire 1 T N17 $end
$var wire 1 U N21 $end
$var wire 1 V N25 $end
$var wire 1 C" N250 $end
$var wire 1 D" N251 $end
$var wire 1 E" N252 $end
$var wire 1 F" N253 $end
$var wire 1 G" N254 $end
$var wire 1 H" N255 $end
$var wire 1 I" N256 $end
$var wire 1 J" N257 $end
$var wire 1 K" N258 $end
$var wire 1 L" N259 $end
$var wire 1 M" N260 $end
$var wire 1 N" N261 $end
$var wire 1 O" N262 $end
$var wire 1 P" N263 $end
$var wire 1 Q" N264 $end
$var wire 1 R" N265 $end
$var wire 1 S" N266 $end
$var wire 1 T" N267 $end
$var wire 1 U" N268 $end
$var wire 1 V" N269 $end
$var wire 1 W" N270 $end
$var wire 1 X" N271 $end
$var wire 1 Y" N272 $end
$var wire 1 Z" N273 $end
$var wire 1 [" N274 $end
$var wire 1 \" N275 $end
$var wire 1 ]" N276 $end
$var wire 1 ^" N277 $end
$var wire 1 _" N278 $end
$var wire 1 `" N279 $end
$var wire 1 a" N280 $end
$var wire 1 b" N281 $end
$var wire 1 c" N282 $end
$var wire 1 d" N283 $end
$var wire 1 e" N284 $end
$var wire 1 f" N285 $end
$var wire 1 g" N286 $end
$var wire 1 h" N287 $end
$var wire 1 i" N288 $end
$var wire 1 j" N289 $end
$var wire 1 W N29 $end
$var wire 1 k" N290 $end
$var wire 1 l" N293 $end
$var wire 1 m" N296 $end
$var wire 1 n" N299 $end
$var wire 1 o" N302 $end
$var wire 1 p" N305 $end
$var wire 1 q" N308 $end
$var wire 1 r" N311 $end
$var wire 1 s" N314 $end
$var wire 1 t" N315 $end
$var wire 1 u" N316 $end
$var wire 1 v" N317 $end
$var wire 1 w" N318 $end
$var wire 1 x" N319 $end
$var wire 1 y" N320 $end
$var wire 1 z" N321 $end
$var wire 1 X N33 $end
$var wire 1 {" N338 $end
$var wire 1 |" N339 $end
$var wire 1 }" N340 $end
$var wire 1 ~" N341 $end
$var wire 1 !# N342 $end
$var wire 1 "# N343 $end
$var wire 1 ## N344 $end
$var wire 1 $# N345 $end
$var wire 1 %# N346 $end
$var wire 1 &# N347 $end
$var wire 1 '# N348 $end
$var wire 1 (# N349 $end
$var wire 1 )# N350 $end
$var wire 1 *# N351 $end
$var wire 1 +# N352 $end
$var wire 1 ,# N353 $end
$var wire 1 -# N354 $end
$var wire 1 .# N367 $end
$var wire 1 Y N37 $end
$var wire 1 /# N380 $end
$var wire 1 0# N393 $end
$var wire 1 1# N406 $end
$var wire 1 Z N41 $end
$var wire 1 2# N419 $end
$var wire 1 3# N432 $end
$var wire 1 4# N445 $end
$var wire 1 [ N45 $end
$var wire 1 \ N49 $end
$var wire 1 ] N5 $end
$var wire 1 ^ N53 $end
$var wire 1 5# N554 $end
$var wire 1 6# N555 $end
$var wire 1 7# N556 $end
$var wire 1 8# N557 $end
$var wire 1 9# N558 $end
$var wire 1 :# N559 $end
$var wire 1 ;# N560 $end
$var wire 1 <# N561 $end
$var wire 1 =# N562 $end
$var wire 1 ># N563 $end
$var wire 1 ?# N564 $end
$var wire 1 @# N565 $end
$var wire 1 A# N566 $end
$var wire 1 B# N567 $end
$var wire 1 C# N568 $end
$var wire 1 D# N569 $end
$var wire 1 _ N57 $end
$var wire 1 E# N570 $end
$var wire 1 F# N571 $end
$var wire 1 G# N572 $end
$var wire 1 H# N573 $end
$var wire 1 I# N574 $end
$var wire 1 J# N575 $end
$var wire 1 K# N576 $end
$var wire 1 L# N577 $end
$var wire 1 M# N578 $end
$var wire 1 N# N579 $end
$var wire 1 O# N580 $end
$var wire 1 P# N581 $end
$var wire 1 Q# N582 $end
$var wire 1 R# N583 $end
$var wire 1 S# N584 $end
$var wire 1 T# N585 $end
$var wire 1 U# N586 $end
$var wire 1 V# N587 $end
$var wire 1 W# N588 $end
$var wire 1 X# N589 $end
$var wire 1 Y# N590 $end
$var wire 1 Z# N591 $end
$var wire 1 [# N592 $end
$var wire 1 \# N593 $end
$var wire 1 ]# N594 $end
$var wire 1 ^# N595 $end
$var wire 1 _# N596 $end
$var wire 1 `# N597 $end
$var wire 1 a# N598 $end
$var wire 1 b# N599 $end
$var wire 1 c# N600 $end
$var wire 1 d# N601 $end
$var wire 1 e# N602 $end
$var wire 1 f# N607 $end
$var wire 1 ` N61 $end
$var wire 1 g# N620 $end
$var wire 1 h# N625 $end
$var wire 1 i# N630 $end
$var wire 1 j# N635 $end
$var wire 1 k# N640 $end
$var wire 1 l# N645 $end
$var wire 1 a N65 $end
$var wire 1 m# N650 $end
$var wire 1 n# N655 $end
$var wire 1 b N69 $end
$var wire 1 o# N692 $end
$var wire 1 p# N693 $end
$var wire 1 q# N694 $end
$var wire 1 r# N695 $end
$var wire 1 s# N696 $end
$var wire 1 t# N697 $end
$var wire 1 u# N698 $end
$var wire 1 v# N699 $end
$var wire 1 w# N700 $end
$var wire 1 x# N701 $end
$var wire 1 y# N702 $end
$var wire 1 z# N703 $end
$var wire 1 {# N704 $end
$var wire 1 |# N705 $end
$var wire 1 }# N706 $end
$var wire 1 ~# N707 $end
$var wire 1 !$ N708 $end
$var wire 1 "$ N709 $end
$var wire 1 #$ N710 $end
$var wire 1 $$ N711 $end
$var wire 1 %$ N712 $end
$var wire 1 &$ N713 $end
$var wire 1 '$ N714 $end
$var wire 1 ($ N715 $end
$var wire 1 )$ N716 $end
$var wire 1 *$ N717 $end
$var wire 1 +$ N718 $end
$var wire 1 ,$ N719 $end
$var wire 1 -$ N720 $end
$var wire 1 .$ N721 $end
$var wire 1 /$ N722 $end
$var wire 1 0$ N723 $end
$var wire 1 B" N724 $end
$var wire 1 A" N725 $end
$var wire 1 @" N726 $end
$var wire 1 ?" N727 $end
$var wire 1 >" N728 $end
$var wire 1 =" N729 $end
$var wire 1 c N73 $end
$var wire 1 <" N730 $end
$var wire 1 ;" N731 $end
$var wire 1 :" N732 $end
$var wire 1 9" N733 $end
$var wire 1 8" N734 $end
$var wire 1 7" N735 $end
$var wire 1 6" N736 $end
$var wire 1 5" N737 $end
$var wire 1 4" N738 $end
$var wire 1 3" N739 $end
$var wire 1 2" N740 $end
$var wire 1 1" N741 $end
$var wire 1 0" N742 $end
$var wire 1 /" N743 $end
$var wire 1 ." N744 $end
$var wire 1 -" N745 $end
$var wire 1 ," N746 $end
$var wire 1 +" N747 $end
$var wire 1 *" N748 $end
$var wire 1 )" N749 $end
$var wire 1 (" N750 $end
$var wire 1 '" N751 $end
$var wire 1 &" N752 $end
$var wire 1 %" N753 $end
$var wire 1 $" N754 $end
$var wire 1 #" N755 $end
$var wire 1 d N77 $end
$var wire 1 e N81 $end
$var wire 1 f N85 $end
$var wire 1 g N89 $end
$var wire 1 h N9 $end
$var wire 1 i N93 $end
$var wire 1 j N97 $end
$upscope $end
$upscope $end
$scope task apply_fixed_inputs $end
$upscope $end
$scope task randomize_inputs $end
$upscope $end
$scope task set_key $end
$var reg 16 1$ keyval [15:0] $end
$upscope $end
$upscope $end
$enddefinitions $end
$comment Show the parameter values. $end
$dumpall
$end
#0
$dumpvars
b110110100100101 1$
00$
0/$
0.$
0-$
0,$
0+$
0*$
0)$
0($
0'$
0&$
0%$
0$$
0#$
0"$
0!$
0~#
0}#
0|#
0{#
0z#
0y#
0x#
0w#
0v#
0u#
0t#
0s#
0r#
0q#
0p#
0o#
0n#
0m#
0l#
0k#
0j#
0i#
0h#
0g#
0f#
0e#
0d#
0c#
0b#
0a#
0`#
0_#
0^#
0]#
1\#
0[#
0Z#
0Y#
1X#
1W#
0V#
1U#
1T#
0S#
0R#
1Q#
0P#
1O#
1N#
0M#
1L#
0K#
0J#
1I#
0H#
1G#
1F#
1E#
0D#
0C#
1B#
0A#
0@#
1?#
1>#
0=#
1<#
0;#
0:#
19#
08#
17#
16#
05#
04#
13#
12#
01#
10#
0/#
0.#
1-#
0,#
1+#
0*#
0)#
1(#
1'#
1&#
0%#
0$#
1##
1"#
0!#
1~"
0}"
1|"
0{"
0z"
0y"
1x"
0w"
0v"
1u"
1t"
1s"
1r"
0q"
1p"
1o"
0n"
1m"
1l"
1k"
1j"
1i"
1h"
1g"
0f"
1e"
1d"
1c"
1b"
1a"
1`"
0_"
1^"
0]"
0\"
1["
1Z"
1Y"
1X"
0W"
1V"
0U"
0T"
0S"
1R"
0Q"
1P"
1O"
0N"
1M"
0L"
1K"
1J"
1I"
1H"
0G"
1F"
0E"
0D"
1C"
0B"
1A"
1@"
1?"
1>"
1="
1<"
0;"
1:"
19"
08"
17"
16"
05"
14"
03"
12"
01"
10"
1/"
0."
1-"
0,"
0+"
0*"
1)"
0("
1'"
1&"
1%"
1$"
0#"
bx ""
b0 !"
bx ~
b110110100100101 }
bx |
bx {
0z
1y
0x
0w
1v
0u
0t
1s
0r
1q
1p
0o
1n
1m
0l
1k
0j
0i
1h
0g
1f
0e
1d
1c
0b
1a
0`
1_
0^
1]
1\
1[
0Z
1Y
1X
0W
1V
1U
1T
1S
1R
1Q
1P
0O
1N
0M
0L
1K
0J
0I
1H
1G
1F
1E
0D
1C
0B
1A
1@
0?
1>
1=
0<
1;
0:
09
18
17
06
15
14
03
02
11
00
1/
1.
0-
1,
0+
0*
0)
1(
0'
1&
1%
1$
1#
0"
b11011010011011001011010001011110 !
$end
#1000
0D#
0H#
0K#
0P#
0S#
0E#
0G#
0I#
0L#
0O#
17#
1<#
1?#
1X#
1\#
06#
09#
0>#
0U#
0W#
1B#
1F#
1N#
1Q#
1T#
1%#
1,#
05#
08#
0;#
0Y#
0[#
13#
11#
0/#
1.#
04#
1!#
0##
0~"
1}"
1-#
1+#
1)#
0(#
1'#
0&#
1z"
0o"
1v"
12
05
08
19
0l"
0;
0k"
1?
0@
0s"
0A
0Y"
1W"
0V"
1U"
1T"
0P"
0j"
0&
0'"
0O"
0d"
1)
1*"
1*
1+"
1+
1,"
0.
0/"
0/
00"
0K"
0c"
b111000101001010000011111001110 !
01
02"
0J"
0b"
13"
0I"
06"
0^"
09"
0:"
0F"
0<"
1D"
0@"
1]"
0A"
0["
1B"
0Q
1O
0N
1M
1L
0E
1j
1i
1g
0d
0c
0a
1`
0\
0Y
0X
0V
0h
0]
1B
b1 !"
#2000
17
08"
0w#
0y#
0z#
0i#
16#
19#
1>#
1U#
1W#
07#
0<#
0?#
0X#
0\#
0e#
1E#
1G#
1I#
1L#
1O#
0.#
1/#
0_#
01#
0A#
0C#
0J#
0M#
0R#
1(#
0%#
0:#
0=#
0@#
0V#
0Z#
05#
08#
0;#
0Y#
0[#
12#
0"#
1$#
0!#
1##
0|"
10#
1-#
1{"
1'#
0,#
0*#
1)#
0&#
0r"
0z"
1w"
1o"
04
15
0m"
0v"
16
18
09
0t"
1<
1s"
0=
1k"
0u"
0?
0U"
0Z"
0X"
0W"
0T"
0R"
1j"
1"
1#"
1f"
0(
0)"
1d"
0)
0*"
0*
0+"
0+
0,"
0e"
0,
0-"
1-
1."
1.
1/"
1/
10"
1K"
b10100011110011011100000001111 !
11
12"
15"
16"
0H"
1b"
07"
19"
1:"
0]"
0="
1["
0>"
0D"
1_"
1@"
0S
1Q
0P
0O
1N
0L
1J
1I
0C
0j
0i
0g
0f
1e
1d
1c
1a
1^
1\
0[
1Y
1X
0U
0T
1h
b10 !"
#3000
1A#
1C#
1J#
1M#
1R#
0B#
0F#
0N#
0Q#
0T#
02#
14#
0:#
0=#
0@#
0V#
0Z#
1&#
17#
1<#
1?#
1X#
1\#
1*#
1,#
16#
19#
1>#
1U#
1W#
10#
1"#
0$#
0/#
1|"
1~"
0.#
1%#
1(#
0)#
1r"
0w"
1u"
13
14
1m"
06
08
0s"
19
1l"
1:
0k"
1t"
1@
1S"
1V"
1W"
0"
0#"
0#
0$"
1Q"
0$
0%"
1&
1'"
1'
1("
1(
1)"
0d"
1)
1*"
1N"
1+
1,"
0M"
0-
0."
1L"
0/
00"
0K"
b1010101101011110001001011111000 !
01
02"
1J"
0`"
04"
1I"
05"
1H"
0b"
17"
09"
1\"
0:"
1F"
0a"
1;"
0C"
1]"
1A"
1S
0R
0Q
1O
0M
0I
0H
0G
1E
1D
1C
1j
1g
0e
0c
0a
0_
0^
1[
0Y
0X
1W
1]
b11 !"
#4000
1)
1*"
0)$
0*$
0+$
0m#
0e#
0f#
06#
09#
0>#
0U#
0W#
07#
0<#
0?#
0X#
0\#
0^#
15#
18#
1;#
1Y#
1[#
1:#
1=#
1@#
1V#
1Z#
0A#
0C#
0J#
0M#
0R#
0d#
1.#
1/#
0-#
00#
12#
1B#
1F#
1N#
1Q#
1T#
0D#
0H#
0K#
0P#
0S#
0E#
0G#
0I#
0L#
0O#
0(#
0*#
04#
13#
11#
0"#
0##
1!#
1$#
0|"
0}"
0,#
1+#
1)#
1'#
1&#
1%#
1q"
0p"
1n"
02
16
0t"
18
0l"
0:
0<
1s"
1=
0>
0u"
1?
1k"
0@
1Z"
1Y"
0W"
1U"
1T"
0S"
1"
1#"
1#
1$"
1$
1%"
1d"
0%
0&"
0&
0'"
0'
0("
1O"
0(
0)"
0N"
0+
0,"
0L"
1/
10"
1K"
1c"
b101000111111101011000010000111 !
11
12"
0J"
03"
0H"
07"
1G"
1^"
19"
0F"
0;"
1="
0["
1>"
0?"
0_"
0@"
1C"
0A"
1R
1Q
0O
1M
1L
0J
1I
1H
1G
0F
0E
0D
0C
0g
1c
1a
0`
0[
1Y
0W
1U
1T
0K
0h
0]
b100 !"
#5000
12
13"
1~#
1j#
1e#
1]#
16#
19#
1>#
1U#
1W#
0:#
0=#
0@#
0V#
0Z#
17#
1<#
1?#
1X#
1\#
1D#
1H#
1K#
1P#
1S#
1E#
1G#
1I#
1L#
1O#
0B#
0F#
0N#
0Q#
0T#
0.#
10#
0/#
03#
01#
14#
0A#
0C#
0J#
0M#
0R#
0%#
15#
18#
1;#
1Y#
1[#
1*#
1"#
0$#
12#
0!#
1##
0-#
1|"
1}"
0{"
0~"
0,#
1+#
1)#
0(#
1'#
1&#
0r"
1y"
0x"
1w"
1z"
0o"
1t"
04
0s"
05
0m"
1u"
07
1l"
1<
1v"
1>
1@
0Z"
0Y"
1W"
0V"
0U"
0T"
1R"
0h"
0#
0$"
0f"
0$
0%"
0d"
1%
1&"
0i"
1*
1+"
1+
1,"
1L"
b1111100110100111001001110001001 !
0/
00"
0^"
15"
0\"
06"
1H"
1`"
18"
1E"
0="
1D"
1a"
1?"
0C"
1A"
0R
0Q
1O
0N
0M
0L
0H
0G
1F
1i
1g
0c
1^
0\
1Z
0U
1K
1]
b101 !"
#6000
0~#
1B#
1F#
1N#
1Q#
1T#
1e#
0j#
04#
1]#
0D#
0H#
0K#
0P#
0S#
0A#
0C#
0J#
0M#
0R#
15#
18#
1;#
1Y#
1[#
0{#
0&#
0E#
0G#
0I#
0L#
0O#
16#
19#
1>#
1U#
1W#
0|#
13#
12#
0-#
0"#
11#
1!#
0|"
1~"
0.#
0,#
0+#
1*#
0%#
1r"
0w"
1p"
0z"
0n"
12
0t"
14
15
17
09
1:
0<
0?
0@
1Z"
1Y"
1X"
1S"
0R"
0"
0#"
1$
1%"
1d"
0%
0&"
1P"
1&
1'"
0O"
1(
1)"
1N"
1i"
b11001011111111001001011010100 !
0*
0+"
1J"
1b"
13"
1^"
05"
16"
0H"
0`"
08"
0G"
1:"
1F"
0a"
1;"
0E"
1="
0D"
1_"
1@"
1C"
0A"
1R
1Q
1P
1J
0I
1G
0F
1E
1C
0i
1`
0^
1\
0Z
1X
1W
1U
1h
0]
b110 !"
#7000
1B#
1F#
1N#
1Q#
1T#
0E#
0G#
0I#
0L#
0O#
04#
11#
1{"
0~"
0,#
1+#
0*#
1)#
1%#
0r"
0q"
0p"
1x"
1o"
0y"
03
04
06
07
08
1s"
19
0l"
0:
1<
0=
1@
1A
0Z"
0Y"
0X"
0W"
0S"
0Q"
0d"
1%
1&"
0P"
0j"
0&
0'"
0N"
0i"
1*
1+"
1e"
1,
1-"
0c"
1-
1."
0L"
0g"
b11010100100010011011111111001100 !
1/
10"
0J"
14"
0I"
15"
0b"
17"
18"
09"
1\"
0:"
0F"
1a"
0;"
0="
0>"
1A"
0B"
0S
0R
0Q
0P
0O
1M
0J
1F
0E
1i
1f
1e
1c
1_
1^
1[
1Z
0Y
0X
0W
0U
0T
1]
0B
b111 !"
#8000
1^#
07#
0<#
0?#
0X#
0\#
0B#
0F#
0N#
0Q#
0T#
1E#
1G#
1I#
1L#
1O#
1e#
1/#
14#
01#
0D#
0H#
0K#
0P#
0S#
0A#
0C#
0J#
0M#
0R#
1:#
1=#
1@#
1V#
1Z#
0]#
15#
18#
1;#
1Y#
1[#
0)#
13#
12#
00#
0-#
0!#
0##
1|"
1~"
0{"
0}"
1'#
0,#
1+#
0*#
1(#
1&#
1%#
1z"
0o"
1n"
14
18
09
0k"
0u"
1?
1t"
0@
0A
1U"
1Z"
1Y"
1X"
1V"
1T"
1S"
0$
0%"
1d"
0%
0&"
1P"
1j"
1&
1'"
1O"
0(
0)"
1N"
0*
0+"
1M"
1c"
0-
0."
1L"
b110100010011011010011010010000 !
0.
0/"
1I"
05"
19"
0\"
1:"
1D"
0_"
0@"
0]"
0A"
1["
1B"
1S
1R
1Q
1P
1N
1L
1J
0G
0F
1E
0C
0i
0e
0d
0^
1Y
1X
0h
0]
1B
b1000 !"
#9000
1f#
1`#
1c#
05#
08#
0;#
0Y#
0[#
1e#
1-#
17#
1<#
1?#
1X#
1\#
0^#
1B#
1F#
1N#
1Q#
1T#
1D#
1H#
1K#
1P#
1S#
0A#
0C#
0J#
0M#
0R#
1:#
1=#
1@#
1V#
1Z#
1E#
1G#
1I#
1L#
1O#
1)#
0/#
04#
03#
12#
00#
1!#
1$#
01#
0|"
1{"
1%#
0'#
1,#
0+#
0*#
1(#
0&#
1p"
1w"
13
05
16
17
1m"
19
1;
0s"
1=
0>
0?
1k"
0t"
1@
0S"
0U"
0Z"
0Y"
0X"
0V"
0T"
1R"
1h"
1#
1$"
1Q"
1f"
1$
1%"
0M"
0e"
0,
0-"
0L"
1g"
0/
00"
0K"
0c"
b1001110111101110000001010010110 !
01
02"
1J"
04"
0I"
06"
1b"
07"
08"
1G"
0:"
1F"
1<"
1E"
0["
1>"
0a"
0?"
1@"
0C"
1]"
1A"
0S
0Q
0P
0N
0L
1H
1G
0f
0c
0a
0_
0\
0[
0Z
0X
1V
1T
0K
1h
1]
b1001 !"
#10000
0@
0A"
1p#
1g#
1_#
06#
09#
0>#
0U#
0W#
0f#
1A#
1C#
1J#
1M#
1R#
0D#
0H#
0K#
0P#
0S#
1e#
1.#
0c#
02#
13#
15#
18#
1;#
1Y#
1[#
0`#
1:#
1=#
1@#
1V#
1Z#
0E#
0G#
0I#
0L#
0O#
0-#
00#
1"#
0$#
11#
1|"
1}"
0%#
0+#
0*#
1(#
0&#
1r"
0x"
0w"
1y"
0n"
03
06
1t"
08
09
1l"
1:
0k"
1A
1S"
1Y"
1X"
1V"
1T"
0R"
0#
0$"
0j"
0&
0'"
1'
1("
0f"
1(
1)"
0d"
0)
0*"
1i"
1.
1/"
0g"
1/
10"
0J"
14"
0b"
17"
18"
0^"
09"
1\"
1:"
0F"
1a"
1;"
1C"
1["
0B"
02
15
17
0<
0=
b10100011001011000011001001100100 !
1?
1S
0R
1Q
1P
1N
0M
1L
0H
0E
1D
1C
0j
1d
1c
1_
1[
1Z
0Y
1X
1W
0B
1r
1o
0m
0v
1u
0s
b1111100100010001 1$
b1111100100010001 ~
b0 ""
b0 !"
#11000
1@
1f#
1^#
1A"
1b#
16#
19#
1>#
1U#
1W#
0p#
1e#
0.#
0g#
0_#
1:#
1=#
1@#
1V#
1Z#
0r#
1A#
1C#
1J#
1M#
1R#
1B#
1F#
1N#
1Q#
1T#
1E#
1G#
1I#
1L#
1O#
07#
0<#
0?#
0X#
0\#
0q#
0,#
00#
02#
0"#
1$#
04#
01#
0|"
1/#
0~"
0&#
1(#
1+#
0*#
1%#
0r"
0z"
1w"
0y"
0m"
1u"
07
0:
0;
0l"
0t"
1<
1>
0?
1k"
1s"
0A
0T"
0V"
0Y"
0X"
0S"
1R"
1#
1$"
1j"
1&
1'"
0'
0("
1,
1-"
1c"
1-
1."
1L"
1g"
0/
00"
1K"
b1010100000011000101111001010110 !
10
11"
1H"
1`"
08"
0;"
0<"
0E"
0]"
1="
1?"
0@"
0C"
0["
1B"
0S
0P
1M
0J
1H
1E
0D
1f
1e
0c
1b
0Z
0W
0V
1U
1K
0h
1B
b1 !"
#12000
0B#
0F#
0N#
0Q#
0T#
1a#
1D#
1H#
1K#
1P#
1S#
0b#
14#
03#
1~"
0}"
1&#
1'#
0(#
1+#
0,#
1*#
0)#
0%#
1r"
1x"
1z"
1q"
0p"
1y"
1o"
0w"
1n"
13
1m"
17
1t"
18
0s"
19
0v"
0>
0u"
1?
1T"
1U"
1V"
1Y"
1Z"
1X"
1W"
1S"
0R"
0#
0$"
1f"
0$
0%"
1%
1&"
0j"
0&
0'"
1'
1("
0O"
1)
1*"
0N"
1*
1+"
0.
0/"
0g"
1/
10"
0K"
0c"
b1100100111011101110111111101000 !
11
12"
1J"
04"
0H"
18"
1^"
19"
0\"
0:"
0a"
0?"
1_"
1@"
1S
1R
1P
1O
1J
0H
0G
1F
0E
1D
1j
1i
0d
1c
1a
0_
1Z
1Y
0X
0K
1h
b10 !"
#13000
0;
0m#
0<"
0f#
0t#
0u#
1B#
1F#
1N#
1Q#
1T#
0a#
0h#
0e#
04#
1E#
1G#
1I#
1L#
1O#
07#
0<#
0?#
0X#
0\#
0^#
06#
09#
0>#
0U#
0W#
15#
18#
1;#
1Y#
1[#
01#
1/#
1.#
0-#
1##
0!#
0{"
0~"
1(#
0)#
0,#
0+#
0*#
1'#
0&#
0%#
0r"
0x"
0z"
0q"
1p"
0y"
04
05
1v"
16
07
08
09
1l"
1:
0<
1=
1>
0?
0@
1A
0V"
0W"
0Z"
0Y"
0X"
0U"
0T"
0S"
1R"
1#
1$"
0f"
1$
1%"
0%
0&"
1j"
1&
1'"
0'
0("
1O"
0)
0*"
1M"
0-
0."
0L"
1g"
0/
00"
1K"
b10011001000100100100011101010110 !
01
02"
15"
16"
1b"
07"
0`"
08"
09"
1:"
1F"
1;"
0="
0>"
1?"
0_"
0@"
0A"
0B"
0S
0Q
0P
0M
0L
0J
1H
1G
0F
1E
0D
0j
0e
0c
0a
1^
1\
0[
0Z
0Y
1X
1W
0U
0T
1K
0h
0]
0B
b11 !"
